Cyclistic bike-share analysis(Dec 2020 - Nov 2021)
…
Average number of trips by customer type and month

unique(all_trips$month)

##  [1] Dec-20 Jan-21 Feb-21 Mar-21 Apr-21 May-21 Jun-21 Jul-21 Aug-21 Sep-21
## [11] Oct-21 Nov-21
## 12 Levels: Dec-20 < Jan-21 < Feb-21 < Mar-21 < Apr-21 < May-21 < ... < Nov-21

all_trips %>% 
  group_by(user_type, month) %>%  
  summarise(number_of_rides = n(),average_duration_mins = mean(ride_length))

## `summarise()` has grouped output by 'user_type'. You can override using the `.groups` argument.

## # A tibble: 24 x 4
## # Groups:   user_type [2]
##    user_type month  number_of_rides average_duration_mins
##    <chr>     <ord>            <int>                 <dbl>
##  1 casual    Dec-20           30000                  26.8
##  2 casual    Jan-21           18117                  25.7
##  3 casual    Feb-21           10131                  49.4
##  4 casual    Mar-21           84033                  38.2
##  5 casual    Apr-21          136601                  38.0
##  6 casual    May-21          256916                  38.2
##  7 casual    Jun-21          370680                  37.1
##  8 casual    Jul-21          442056                  32.8
##  9 casual    Aug-21          412666                  28.8
## 10 casual    Sep-21          363888                  27.8
## # ... with 14 more rows
…
